> RPGMAKER TRANS PATCH FILE VERSION 3.2
> BEGIN STRING
地下３階
> CONTEXT: Map015/display_name/ < UNTRANSLATED

> END STRING

> BEGIN STRING
\\C[1]\\N[1]
\\C[0]「あら……？ この本見覚えが……。何か
　らくがきがしてあるわね」
> CONTEXT: Map015/events/60/pages/0/4/Dialogue < UNTRANSLATED

> END STRING

> BEGIN STRING
\\C[1]モリィ
\\C[0]「おや、これは…… 」
> CONTEXT: Map015/events/60/pages/0/14/Dialogue < UNTRANSLATED

> END STRING

> BEGIN STRING
　　　　　　　\\I[384]\\I[385]\\I[386]\\I[387]\\I[412]\\I[389]\\I[390]\\I[391]\\I[392]\\I[393]
　　　　　　　　　\\I[394]\\I[395]\\I[396]\\I[397]\\I[398]
　　　　　　　　\\I[400]\\I[401]\\I[402]\\I[403]\\I[404]\\I[405]\\I[406]\\I[407]\\I[408]\\I[409]
> CONTEXT: Map015/events/60/pages/0/17/Dialogue < UNTRANSLATED

> END STRING

> BEGIN STRING
\\C[1]\\N[1]
\\C[0]「やだぁ！ これ私が子供の頃に書いた……っ！
　字、間違えてるし！ 恥ずかしいっ！ 何で こんな所に……！！ 」
> CONTEXT: Map015/events/60/pages/0/24/Dialogue < UNTRANSLATED

> END STRING

> BEGIN STRING
\\C[1]モリィ
\\C[0]「あの頃は 魔法少女モノに熱を上げられ、時折 空想に
　浸っていましたねぇ……可愛らしゅうございました」
> CONTEXT: Map015/events/60/pages/0/29/Dialogue < UNTRANSLATED

> END STRING

> BEGIN STRING
\\C[1]\\N[1]
\\C[0]「モリィ……この事は…… 」
> CONTEXT: Map015/events/60/pages/0/37/Dialogue < UNTRANSLATED

> END STRING

> BEGIN STRING
\\C[1]モリィ
\\C[0]「えぇ、私の心の中に留めておきます。私だけが知る
　\\N[1]様の 愛くるしい幼少期のお姿ですから」
> CONTEXT: Map015/events/60/pages/0/40/Dialogue < UNTRANSLATED

> END STRING

> BEGIN STRING
\\C[1]\\N[1]
\\C[0]「そ、そう……ありがと…… 」
> CONTEXT: Map015/events/60/pages/0/44/Dialogue < UNTRANSLATED

> END STRING

> BEGIN STRING
\\C[1]\\N[1]
\\C[0]「会話 」
> CONTEXT: Map015/events/60/pages/1/4/Dialogue < UNTRANSLATED
> CONTEXT: Commonevents/508/4/Dialogue < UNTRANSLATED

> END STRING

> BEGIN STRING

ジューシィセックスを習得した！
> CONTEXT: Map015/events/60/pages/1/11/Dialogue < UNTRANSLATED
> CONTEXT: Map013/events/55/pages/1/59/Dialogue < UNTRANSLATED
> CONTEXT: Commonevents/508/11/Dialogue < UNTRANSLATED

> END STRING

> BEGIN STRING
\\C[1]\\N[1]
\\C[0]「こんな所で油を売ってる場合じゃないわ！
　行かなくちゃ……！ 」
> CONTEXT: Map015/events/62/pages/0/63/Dialogue < UNTRANSLATED

> END STRING
